|journal list  |count |
|:-------------|:-----|
|Catalogue     |1996  |
|MPG           |1812  |
|Netherlands   |1843  |
|UK            |1820  |
|Austria       |1838  |
|Sweden        |1844  |
|Finland       |1844  |
|Hungary       |1844  |
|Poland        |1844  |
|Combined list |2015  |

```
#> # A tibble: 357 x 10
#>    Title Catalogue MPG   Netherlands UK    Austria Sweden Finland Hungary
#>    <chr> <lgl>     <lgl> <lgl>       <lgl> <lgl>   <lgl>  <lgl>   <lgl>  
#>  1 Adap… TRUE      TRUE  FALSE       TRUE  TRUE    TRUE   TRUE    TRUE   
#>  2 ADHD… TRUE      TRUE  TRUE        TRUE  TRUE    FALSE  FALSE   FALSE  
#>  3 Air … TRUE      TRUE  TRUE        TRUE  FALSE   TRUE   TRUE    TRUE   
#>  4 Amer… TRUE      TRUE  TRUE        TRUE  TRUE    FALSE  FALSE   FALSE  
#>  5 Anna… TRUE      TRUE  TRUE        TRUE  FALSE   TRUE   TRUE    TRUE   
#>  6 Apop… TRUE      TRUE  FALSE       TRUE  TRUE    TRUE   TRUE    TRUE   
#>  7 Appl… FALSE     TRUE  TRUE        TRUE  TRUE    TRUE   TRUE    TRUE   
#>  8 Appl… TRUE      TRUE  TRUE        TRUE  TRUE    FALSE  FALSE   FALSE  
#>  9 Arch… TRUE      TRUE  TRUE        TRUE  FALSE   TRUE   TRUE    TRUE   
#> 10 Arch… TRUE      TRUE  FALSE       TRUE  TRUE    TRUE   TRUE    TRUE   
#> # ... with 347 more rows, and 1 more variable: Poland <lgl>
```
…
